{
  "medias": {
    "training_media1": {
      "items": [
        {
          "item": 1,
          "type": "image",
          "name": "img.PNG",
          "usage": "available"
        },
        {
          "item": 2,
          "type": "factsheet",
          "name": "java",
          "factsheet_data": "'Java language' redirects here. For the natural language from the Indonesian island of Java, see Javanese language.This article is about a programming language. For the software package downloaded from java.com, see Java SE.Not to be confused with JavaScript.",
          "usage": "selected"
        },
        {
          "item": 3,
          "type": "embed",
          "name": "selenium",
          "embed_code": "<iframe width='560' height='315' src='https://www.youtube.com/embed/jLOtNxQ1yrs' frameborder='0' allow='autoplay; encrypted-media' allowfullscreen></iframe>",
          "usage": "selected"
        },
        {
          "item": 4,
          "type": "pdf",
          "name": "certificate.pdf",
          "usage": "available"
        },
        {
          "item": 5,
          "type": "docx",
          "name": "questions.docx",
          "usage": "selected"
        }
      ]
    },
    "media": {
      "items": [
        {
          "item": 1,
          "type": "image",
          "name": "img.PNG",
          "usage": "available"
        },
        {
          "item": 4,
          "type": "pdf",
          "name": "certificate.pdf",
          "usage": "available"
        },
        {
          "item": 5,
          "type": "docx",
          "name": "questions.docx",
          "usage": "selected"
        }
      ]
    },
    "media1": {
      "base_name": "",
      "items": [
        {
          "item": 1,
          "type": "zip",
          "name": "Drop down1.zip"
        },
        {
          "item": 2,
          "type": "factsheet",
          "name": "java",
          "edit_name": "python",
          "factsheet_data": "'Java language' redirects here. For the natural language from the Indonesian island of Java, see Javanese language.This article is about a programming language. For the software package downloaded from java.com, see Java SE.Not to be confused with JavaScript.",
          "edit_data": "Python is an interpreted high-level programming language for general-purpose programming. Created by Guido van Rossum and first released in 1991, Python has a design philosophy that emphasizes code readability, notably using significant whitespace. It provides constructs that enable clear programming on both small and large scales."
        },
        {
          "item": 3,
          "type": "embed",
          "name": "selenium",
          "edit_name": "automation",
          "embed_code": "<iframe width='560' height='315' src='https://www.youtube.com/embed/jLOtNxQ1yrs' frameborder='0' allow='autoplay; encrypted-media' allowfullscreen></iframe>",
          "edit_data": "<iframe width='560' height='315' src='https://www.youtube.com/embed/xb6Xj1gfljc' frameborder='0' allow='autoplay; encrypted-media' allowfullscreen></iframe>"
        },
        {
          "item": 4,
          "type": "pdf",
          "name": "certificate.pdf"
        },
        {
          "item": 5,
          "type": "docx",
          "name": "questions.docx"
        },
        {
          "item": 6,
          "type": "image",
          "name": "img.PNG"
        },
        {
          "item": 7,
          "type": "xlsx",
          "name": "users_to_upload.xlsx"
        }
      ]
    }
  },
  "path": {
    "path1": {
      "path_name": "first_path",
      "edit_path_name": "edit_path"
    }
  },
  "training": {
    "training_1": [
      {
        "data_creation": "Pass",
        "training_name": "first_module",
        "base_name": "",
        "elements": [
          {
            "item": 1,
            "area": "used",
            "type": "questionnaire",
            "name": "task"
          },
          {
            "item": 2,
            "area": "free_to_play",
            "type": "image",
            "name": "img.PNG"
          },
          {
            "item": 3,
            "area": "used",
            "type": "factsheet",
            "name": "java"
          }
        ]
      }
    ]
  },
  "module": {
    "module_list": [
      {
        "data_creation": "Pass",
        "module_name": "Python",
        "module_rank": "1",
        "elements": [
          {
            "item": 1,
            "type": "questionnaire",
            "name": "task"
          },
          {
            "item": 2,
            "type": "image",
            "name": "img.PNG"
          },
          {
            "item": 3,
            "type": "factsheet",
            "name": "java"
          }
        ]
      }
    ],
    "module_list1": [
      {
        "data_creation": "Pass",
        "module_name": "first_module",
        "module_rank": "1",
        "module_duration": "1",
        "duration_type": "min",
        "elements": [
          {
            "item": 1,
            "type": "questionnaire",
            "name": "task"
          },
          {
            "item": 2,
            "type": "image",
            "name": "img.PNG"
          },
          {
            "item": 3,
            "type": "factsheet",
            "name": "java"
          }
        ]
      },
      {
        "module_name": "second_module",
        "module_duration": "1",
        "duration_type": "min",
        "module_rank": "2",
        "elements": [
          {
            "item": 1,
            "type": "questionnaire",
            "name": "task"
          },
          {
            "item": 2,
            "type": "image",
            "name": "img.PNG"
          },
          {
            "item": 3,
            "type": "factsheet",
            "name": "java"
          },
          {
            "item": 4,
            "type": "pdf",
            "name": "certificate.pdf"
          }
        ]
      }
    ],
    "edit_module_list1": [
      {
        "data_creation": "Pass",
        "module_name": "Automation",
        "elements": [
          {
            "item": 1,
            "type": "questionnaire",
            "name": "task"
          },
          {
            "item": 2,
            "type": "image",
            "name": "img.PNG"
          },
          {
            "item": 3,
            "type": "factsheet",
            "name": "java"
          }
        ]
      },
      {
        "module_name": "selenium",
        "elements": [
          {
            "item": 1,
            "type": "questionnaire",
            "name": "task"
          },
          {
            "item": 2,
            "type": "image",
            "name": "img.PNG"
          },
          {
            "item": 3,
            "type": "factsheet",
            "name": "java"
          },
          {
            "item": 4,
            "type": "pdf",
            "name": "certificate.pdf"
          }
        ]
      }
    ],
    "module_list2": [
      {
        "data_creation": "Pass",
        "module_name": "first_module",
        "module_rank": "1",
        "elements": [
          {
            "item": 1,
            "type": "questionnaire",
            "name": "task"
          },
          {
            "item": 2,
            "type": "image",
            "name": "img.PNG"
          },
          {
            "item": 3,
            "type": "factsheet",
            "name": "java"
          }
        ]
      }
    ],
    "module_list3": [
      {
        "data_creation": "Pass",
        "module_name": "first_module",
        "elements": [
          {
            "item": 1,
            "type": "questionnaire",
            "name": "task"
          },
          {
            "item": 2,
            "type": "image",
            "name": "img.PNG"
          },
          {
            "item": 3,
            "type": "factsheet",
            "name": "java"
          }
        ]
      },
      {
        "module_name": "second_module",
        "elements": [
          {
            "item": 1,
            "type": "questionnaire",
            "name": "task"
          },
          {
            "item": 2,
            "type": "image",
            "name": "img.PNG"
          },
          {
            "item": 3,
            "type": "factsheet",
            "name": "java"
          },
          {
            "item": 4,
            "type": "pdf",
            "name": "certificate.pdf"
          }
        ]
      },
      {
        "module_name": "third_module",
        "elements": [
          {
            "item": 1,
            "type": "questionnaire",
            "name": "task"
          },
          {
            "item": 2,
            "type": "image",
            "name": "img.PNG"
          },
          {
            "item": 3,
            "type": "factsheet",
            "name": "java"
          },
          {
            "item": 4,
            "type": "image",
            "name": "img.PNG"
          },
          {
            "item": 5,
            "type": "pdf",
            "name": "certificate.pdf"
          }
        ]
      }
    ],
    "module_list4": [
      {
        "data_creation": "Pass",
        "module_name": "Media_first_module",
        "elements": [
          {
            "item": 1,
            "type": "image",
            "name": "img.PNG"
          },
          {
            "item": 2,
            "type": "factsheet",
            "name": "java"
          },
          {
            "item": 3,
            "type": "questionnaire",
            "name": "task"
          }
        ]
      },
      {
        "module_name": "media_second_module",
        "elements": [
          {
            "item": 1,
            "type": "image",
            "name": "img.png"
          },
          {
            "item": 2,
            "type": "factsheet",
            "name": "java"
          },
          {
            "item": 3,
            "type": "pdf",
            "name": "certificate.pdf"
          },
          {
            "item": 4,
            "type": "questionnaire",
            "name": "task"
          }
        ]
      }
    ]
  }
}