{
  "skill": {
    "block": {
      "block_name": "Hello",
      "block_abbreviation": "hhh",
      "block_reference1": "111"
    },
    "skills": {
      "skill_name": "first skill",
      "skill_abbreviation": "NGK",
      "skill_reference2": "112"
    },
    "manual_capacity": {
      "type": "manual",
      "cap1_name": "man1",
      "cap1_reference3": "113"
    },
    "auto_capacity": {
      "type": "automatic",
      "cap2_name": "auto1",
      "cap2_reference4": "114"
    }
  },
  "skill_1": {
    "block1": {
      "block1_name": "only manual",
      "block1_abbreviation": "bm",
      "block1_reference": "115"
    },
    "skills1": {
      "skill1_name": "second skill manual",
      "skill1_abbreviation": "bsk",
      "skill1_reference": "116"
    },
    "manual_cap": {
      "type": "manual",
      "items": [
        {
          "item": 1,
          "name": "manual1",
          "reference": "117",
          "validation_rate": "100"
        },
        {
          "item": 2,
          "name": "manual2",
          "reference": "118",
          "validation_rate": "100"
        },
        {
          "item": 3,
          "name": "manual3",
          "reference": "119",
          "validation_rate": "100"
        }
      ]
    },
    "qualification" : {
      "family_code" : "100",
      "family_name" : "Hunter",
      "code"        : "HUN100",
      "name"        : "James Hunter",
      "description" : "qualification description"
    },
    "jobs" : {
      "family_code" : "101",
      "family_name" : "Clarke",
      "code"        : "CLA100",
      "name"        : "Micheal Clarke",
      "description" : "jobs description"
    },
    "import_skill": {
          "item": 1,
          "type": "xlsx",
          "name": "skills_import.xlsx",
          "usage": "available"
        },
    "import_qualification": {
          "item": 2,
          "type": "xlsx",
          "name": "qualification_import.xlsx",
          "usage": "available"
        },
    "import_jobs": {
          "item": 3,
          "type": "xlsx",
          "name": "jobs_import.xlsx",
          "usage": "available"
        }
  }
}




